alu-main/tests/cla_adder_waveform.vcd
$date
	Wed Feb 01 21:33:45 2023
$end
$version
	Icarus Verilog
$end
$timescale
	100ps
$end
$scope module cla_adder_tb $end
$var wire 32 ! sum [31:0] $end
$var wire 1 " Cout $end
$var wire 32 # B [31:0] $end
$var wire 32 $ A [31:0] $end
$var reg 1 % a0 $end
$var reg 1 & a1 $end
$var reg 1 ' a10 $end
$var reg 1 ( a11 $end
$var reg 1 ) a12 $end
$var reg 1 * a13 $end
$var reg 1 + a14 $end
$var reg 1 , a15 $end
$var reg 1 - a16 $end
$var reg 1 . a17 $end
$var reg 1 / a18 $end
$var reg 1 0 a19 $end
$var reg 1 1 a2 $end
$var reg 1 2 a20 $end
$var reg 1 3 a21 $end
$var reg 1 4 a22 $end
$var reg 1 5 a23 $end
$var reg 1 6 a24 $end
$var reg 1 7 a25 $end
$var reg 1 8 a26 $end
$var reg 1 9 a27 $end
$var reg 1 : a28 $end
$var reg 1 ; a29 $end
$var reg 1 < a3 $end
$var reg 1 = a30 $end
$var reg 1 > a31 $end
$var reg 1 ? a4 $end
$var reg 1 @ a5 $end
$var reg 1 A a6 $end
$var reg 1 B a7 $end
$var reg 1 C a8 $end
$var reg 1 D a9 $end
$var reg 1 E b0 $end
$var reg 1 F b1 $end
$var reg 1 G b10 $end
$var reg 1 H b11 $end
$var reg 1 I b12 $end
$var reg 1 J b13 $end
$var reg 1 K b14 $end
$var reg 1 L b15 $end
$var reg 1 M b16 $end
$var reg 1 N b17 $end
$var reg 1 O b18 $end
$var reg 1 P b19 $end
$var reg 1 Q b2 $end
$var reg 1 R b20 $end
$var reg 1 S b21 $end
$var reg 1 T b22 $end
$var reg 1 U b23 $end
$var reg 1 V b24 $end
$var reg 1 W b25 $end
$var reg 1 X b26 $end
$var reg 1 Y b27 $end
$var reg 1 Z b28 $end
$var reg 1 [ b29 $end
$var reg 1 \ b3 $end
$var reg 1 ] b30 $end
$var reg 1 ^ b31 $end
$var reg 1 _ b4 $end
$var reg 1 ` b5 $end
$var reg 1 a b6 $end
$var reg 1 b b7 $end
$var reg 1 c b8 $end
$var reg 1 d b9 $end
$scope module adder $end
$var wire 32 e A [31:0] $end
$var wire 32 f B [31:0] $end
$var wire 32 g result [31:0] $end
$var wire 1 h c8 $end
$var wire 1 i c24 $end
$var wire 1 j c16 $end
$var wire 1 k P3 $end
$var wire 1 l P2 $end
$var wire 1 m P1 $end
$var wire 1 n P0 $end
$var wire 1 o G3 $end
$var wire 1 p G2 $end
$var wire 1 q G1 $end
$var wire 1 r G0 $end
$var wire 1 " Cout $end
$scope module block0 $end
$var wire 8 s A [7:0] $end
$var wire 8 t B [7:0] $end
$var wire 1 u Cin $end
$var wire 1 r G $end
$var wire 1 n P $end
$var wire 1 v carry_1 $end
$var wire 1 w carry_2 $end
$var wire 1 x carry_3 $end
$var wire 1 y carry_4 $end
$var wire 1 z carry_5 $end
$var wire 1 { carry_6 $end
$var wire 1 | carry_7 $end
$var wire 1 } w0 $end
$var wire 1 ~ w1 $end
$var wire 1 !" w10 $end
$var wire 1 "" w11 $end
$var wire 1 #" w12 $end
$var wire 1 $" w13 $end
$var wire 1 %" w14 $end
$var wire 1 &" w15 $end
$var wire 1 '" w16 $end
$var wire 1 (" w17 $end
$var wire 1 )" w18 $end
$var wire 1 *" w19 $end
$var wire 1 +" w2 $end
$var wire 1 ," w20 $end
$var wire 1 -" w21 $end
$var wire 1 ." w22 $end
$var wire 1 /" w23 $end
$var wire 1 0" w24 $end
$var wire 1 1" w25 $end
$var wire 1 2" w26 $end
$var wire 1 3" w27 $end
$var wire 1 4" w28 $end
$var wire 1 5" w29 $end
$var wire 1 6" w3 $end
$var wire 1 7" w30 $end
$var wire 1 8" w31 $end
$var wire 1 9" w32 $end
$var wire 1 :" w33 $end
$var wire 1 ;" w34 $end
$var wire 1 <" w4 $end
$var wire 1 =" w5 $end
$var wire 1 >" w6 $end
$var wire 1 ?" w7 $end
$var wire 1 @" w8 $end
$var wire 1 A" w9 $end
$var wire 8 B" sum [7:0] $end
$var wire 8 C" p [7:0] $end
$var wire 8 D" g [7:0] $end
$scope begin gen_loop[0] $end
$var parameter 2 E" i $end
$upscope $end
$scope begin gen_loop[1] $end
$var parameter 2 F" i $end
$upscope $end
$scope begin gen_loop[2] $end
$var parameter 3 G" i $end
$upscope $end
$scope begin gen_loop[3] $end
$var parameter 3 H" i $end
$upscope $end
$scope begin gen_loop[4] $end
$var parameter 4 I" i $end
$upscope $end
$scope begin gen_loop[5] $end
$var parameter 4 J" i $end
$upscope $end
$scope begin gen_loop[6] $end
$var parameter 4 K" i $end
$upscope $end
$scope begin gen_loop[7] $end
$var parameter 4 L" i $end
$upscope $end
$scope module eighth_adder $end
$var wire 1 M" A $end
$var wire 1 N" B $end
$var wire 1 | Cin $end
$var wire 1 O" S $end
$var wire 1 P" w1 $end
$var wire 1 Q" w2 $end
$var wire 1 R" w3 $end
$upscope $end
$scope module fifth_adder $end
$var wire 1 S" A $end
$var wire 1 T" B $end
$var wire 1 y Cin $end
$var wire 1 U" S $end
$var wire 1 V" w1 $end
$var wire 1 W" w2 $end
$var wire 1 X" w3 $end
$upscope $end
$scope module first_adder $end
$var wire 1 Y" A $end
$var wire 1 Z" B $end
$var wire 1 u Cin $end
$var wire 1 [" S $end
$var wire 1 \" w1 $end
$var wire 1 ]" w2 $end
$var wire 1 ^" w3 $end
$upscope $end
$scope module fourth_adder $end
$var wire 1 _" A $end
$var wire 1 `" B $end
$var wire 1 x Cin $end
$var wire 1 a" S $end
$var wire 1 b" w1 $end
$var wire 1 c" w2 $end
$var wire 1 d" w3 $end
$upscope $end
$scope module second_adder $end
$var wire 1 e" A $end
$var wire 1 f" B $end
$var wire 1 v Cin $end
$var wire 1 g" S $end
$var wire 1 h" w1 $end
$var wire 1 i" w2 $end
$var wire 1 j" w3 $end
$upscope $end
$scope module seventh_adder $end
$var wire 1 k" A $end
$var wire 1 l" B $end
$var wire 1 { Cin $end
$var wire 1 m" S $end
$var wire 1 n" w1 $end
$var wire 1 o" w2 $end
$var wire 1 p" w3 $end
$upscope $end
$scope module sixth_adder $end
$var wire 1 q" A $end
$var wire 1 r" B $end
$var wire 1 z Cin $end
$var wire 1 s" S $end
$var wire 1 t" w1 $end
$var wire 1 u" w2 $end
$var wire 1 v" w3 $end
$upscope $end
$scope module third_adder $end
$var wire 1 w" A $end
$var wire 1 x" B $end
$var wire 1 w Cin $end
$var wire 1 y" S $end
$var wire 1 z" w1 $end
$var wire 1 {" w2 $end
$var wire 1 |" w3 $end
$upscope $end
$upscope $end
$scope module block1 $end
$var wire 8 }" A [7:0] $end
$var wire 8 ~" B [7:0] $end
$var wire 1 q G $end
$var wire 1 m P $end
$var wire 1 !# carry_1 $end
$var wire 1 "# carry_2 $end
$var wire 1 ## carry_3 $end
$var wire 1 $# carry_4 $end
$var wire 1 %# carry_5 $end
$var wire 1 &# carry_6 $end
$var wire 1 '# carry_7 $end
$var wire 1 (# w0 $end
$var wire 1 )# w1 $end
$var wire 1 *# w10 $end
$var wire 1 +# w11 $end
$var wire 1 ,# w12 $end
$var wire 1 -# w13 $end
$var wire 1 .# w14 $end
$var wire 1 /# w15 $end
$var wire 1 0# w16 $end
$var wire 1 1# w17 $end
$var wire 1 2# w18 $end
$var wire 1 3# w19 $end
$var wire 1 4# w2 $end
$var wire 1 5# w20 $end
$var wire 1 6# w21 $end
$var wire 1 7# w22 $end
$var wire 1 8# w23 $end
$var wire 1 9# w24 $end
$var wire 1 :# w25 $end
$var wire 1 ;# w26 $end
$var wire 1 <# w27 $end
$var wire 1 =# w28 $end
$var wire 1 ># w29 $end
$var wire 1 ?# w3 $end
$var wire 1 @# w30 $end
$var wire 1 A# w31 $end
$var wire 1 B# w32 $end
$var wire 1 C# w33 $end
$var wire 1 D# w34 $end
$var wire 1 E# w4 $end
$var wire 1 F# w5 $end
$var wire 1 G# w6 $end
$var wire 1 H# w7 $end
$var wire 1 I# w8 $end
$var wire 1 J# w9 $end
$var wire 8 K# sum [7:0] $end
$var wire 8 L# p [7:0] $end
$var wire 8 M# g [7:0] $end
$var wire 1 h Cin $end
$scope begin gen_loop[0] $end
$var parameter 2 N# i $end
$upscope $end
$scope begin gen_loop[1] $end
$var parameter 2 O# i $end
$upscope $end
$scope begin gen_loop[2] $end
$var parameter 3 P# i $end
$upscope $end
$scope begin gen_loop[3] $end
$var parameter 3 Q# i $end
$upscope $end
$scope begin gen_loop[4] $end
$var parameter 4 R# i $end
$upscope $end
$scope begin gen_loop[5] $end
$var parameter 4 S# i $end
$upscope $end
$scope begin gen_loop[6] $end
$var parameter 4 T# i $end
$upscope $end
$scope begin gen_loop[7] $end
$var parameter 4 U# i $end
$upscope $end
$scope module eighth_adder $end
$var wire 1 V# A $end
$var wire 1 W# B $end
$var wire 1 '# Cin $end
$var wire 1 X# S $end
$var wire 1 Y# w1 $end
$var wire 1 Z# w2 $end
$var wire 1 [# w3 $end
$upscope $end
$scope module fifth_adder $end
$var wire 1 \# A $end
$var wire 1 ]# B $end
$var wire 1 $# Cin $end
$var wire 1 ^# S $end
$var wire 1 _# w1 $end
$var wire 1 `# w2 $end
$var wire 1 a# w3 $end
$upscope $end
$scope module first_adder $end
$var wire 1 b# A $end
$var wire 1 c# B $end
$var wire 1 d# S $end
$var wire 1 e# w1 $end
$var wire 1 f# w2 $end
$var wire 1 g# w3 $end
$var wire 1 h Cin $end
$upscope $end
$scope module fourth_adder $end
$var wire 1 h# A $end
$var wire 1 i# B $end
$var wire 1 ## Cin $end
$var wire 1 j# S $end
$var wire 1 k# w1 $end
$var wire 1 l# w2 $end
$var wire 1 m# w3 $end
$upscope $end
$scope module second_adder $end
$var wire 1 n# A $end
$var wire 1 o# B $end
$var wire 1 !# Cin $end
$var wire 1 p# S $end
$var wire 1 q# w1 $end
$var wire 1 r# w2 $end
$var wire 1 s# w3 $end
$upscope $end
$scope module seventh_adder $end
$var wire 1 t# A $end
$var wire 1 u# B $end
$var wire 1 &# Cin $end
$var wire 1 v# S $end
$var wire 1 w# w1 $end
$var wire 1 x# w2 $end
$var wire 1 y# w3 $end
$upscope $end
$scope module sixth_adder $end
$var wire 1 z# A $end
$var wire 1 {# B $end
$var wire 1 %# Cin $end
$var wire 1 |# S $end
$var wire 1 }# w1 $end
$var wire 1 ~# w2 $end
$var wire 1 !$ w3 $end
$upscope $end
$scope module third_adder $end
$var wire 1 "$ A $end
$var wire 1 #$ B $end
$var wire 1 "# Cin $end
$var wire 1 $$ S $end
$var wire 1 %$ w1 $end
$var wire 1 &$ w2 $end
$var wire 1 '$ w3 $end
$upscope $end
$upscope $end
$scope module block2 $end
$var wire 8 ($ A [7:0] $end
$var wire 8 )$ B [7:0] $end
$var wire 1 p G $end
$var wire 1 l P $end
$var wire 1 *$ carry_1 $end
$var wire 1 +$ carry_2 $end
$var wire 1 ,$ carry_3 $end
$var wire 1 -$ carry_4 $end
$var wire 1 .$ carry_5 $end
$var wire 1 /$ carry_6 $end
$var wire 1 0$ carry_7 $end
$var wire 1 1$ w0 $end
$var wire 1 2$ w1 $end
$var wire 1 3$ w10 $end
$var wire 1 4$ w11 $end
$var wire 1 5$ w12 $end
$var wire 1 6$ w13 $end
$var wire 1 7$ w14 $end
$var wire 1 8$ w15 $end
$var wire 1 9$ w16 $end
$var wire 1 :$ w17 $end
$var wire 1 ;$ w18 $end
$var wire 1 <$ w19 $end
$var wire 1 =$ w2 $end
$var wire 1 >$ w20 $end
$var wire 1 ?$ w21 $end
$var wire 1 @$ w22 $end
$var wire 1 A$ w23 $end
$var wire 1 B$ w24 $end
$var wire 1 C$ w25 $end
$var wire 1 D$ w26 $end
$var wire 1 E$ w27 $end
$var wire 1 F$ w28 $end
$var wire 1 G$ w29 $end
$var wire 1 H$ w3 $end
$var wire 1 I$ w30 $end
$var wire 1 J$ w31 $end
$var wire 1 K$ w32 $end
$var wire 1 L$ w33 $end
$var wire 1 M$ w34 $end
$var wire 1 N$ w4 $end
$var wire 1 O$ w5 $end
$var wire 1 P$ w6 $end
$var wire 1 Q$ w7 $end
$var wire 1 R$ w8 $end
$var wire 1 S$ w9 $end
$var wire 8 T$ sum [7:0] $end
$var wire 8 U$ p [7:0] $end
$var wire 8 V$ g [7:0] $end
$var wire 1 j Cin $end
$scope begin gen_loop[0] $end
$var parameter 2 W$ i $end
$upscope $end
$scope begin gen_loop[1] $end
$var parameter 2 X$ i $end
$upscope $end
$scope begin gen_loop[2] $end
$var parameter 3 Y$ i $end
$upscope $end
$scope begin gen_loop[3] $end
$var parameter 3 Z$ i $end
$upscope $end
$scope begin gen_loop[4] $end
$var parameter 4 [$ i $end
$upscope $end
$scope begin gen_loop[5] $end
$var parameter 4 \$ i $end
$upscope $end
$scope begin gen_loop[6] $end
$var parameter 4 ]$ i $end
$upscope $end
$scope begin gen_loop[7] $end
$var parameter 4 ^$ i $end
$upscope $end
$scope module eighth_adder $end
$var wire 1 _$ A $end
$var wire 1 `$ B $end
$var wire 1 0$ Cin $end
$var wire 1 a$ S $end
$var wire 1 b$ w1 $end
$var wire 1 c$ w2 $end
$var wire 1 d$ w3 $end
$upscope $end
$scope module fifth_adder $end
$var wire 1 e$ A $end
$var wire 1 f$ B $end
$var wire 1 -$ Cin $end
$var wire 1 g$ S $end
$var wire 1 h$ w1 $end
$var wire 1 i$ w2 $end
$var wire 1 j$ w3 $end
$upscope $end
$scope module first_adder $end
$var wire 1 k$ A $end
$var wire 1 l$ B $end
$var wire 1 m$ S $end
$var wire 1 n$ w1 $end
$var wire 1 o$ w2 $end
$var wire 1 p$ w3 $end
$var wire 1 j Cin $end
$upscope $end
$scope module fourth_adder $end
$var wire 1 q$ A $end
$var wire 1 r$ B $end
$var wire 1 ,$ Cin $end
$var wire 1 s$ S $end
$var wire 1 t$ w1 $end
$var wire 1 u$ w2 $end
$var wire 1 v$ w3 $end
$upscope $end
$scope module second_adder $end
$var wire 1 w$ A $end
$var wire 1 x$ B $end
$var wire 1 *$ Cin $end
$var wire 1 y$ S $end
$var wire 1 z$ w1 $end
$var wire 1 {$ w2 $end
$var wire 1 |$ w3 $end
$upscope $end
$scope module seventh_adder $end
$var wire 1 }$ A $end
$var wire 1 ~$ B $end
$var wire 1 /$ Cin $end
$var wire 1 !% S $end
$var wire 1 "% w1 $end
$var wire 1 #% w2 $end
$var wire 1 $% w3 $end
$upscope $end
$scope module sixth_adder $end
$var wire 1 %% A $end
$var wire 1 &% B $end
$var wire 1 .$ Cin $end
$var wire 1 '% S $end
$var wire 1 (% w1 $end
$var wire 1 )% w2 $end
$var wire 1 *% w3 $end
$upscope $end
$scope module third_adder $end
$var wire 1 +% A $end
$var wire 1 ,% B $end
$var wire 1 +$ Cin $end
$var wire 1 -% S $end
$var wire 1 .% w1 $end
$var wire 1 /% w2 $end
$var wire 1 0% w3 $end
$upscope $end
$upscope $end
$scope module block3 $end
$var wire 8 1% A [7:0] $end
$var wire 8 2% B [7:0] $end
$var wire 1 o G $end
$var wire 1 k P $end
$var wire 1 3% carry_1 $end
$var wire 1 4% carry_2 $end
$var wire 1 5% carry_3 $end
$var wire 1 6% carry_4 $end
$var wire 1 7% carry_5 $end
$var wire 1 8% carry_6 $end
$var wire 1 9% carry_7 $end
$var wire 1 :% w0 $end
$var wire 1 ;% w1 $end
$var wire 1 <% w10 $end
$var wire 1 =% w11 $end
$var wire 1 >% w12 $end
$var wire 1 ?% w13 $end
$var wire 1 @% w14 $end
$var wire 1 A% w15 $end
$var wire 1 B% w16 $end
$var wire 1 C% w17 $end
$var wire 1 D% w18 $end
$var wire 1 E% w19 $end
$var wire 1 F% w2 $end
$var wire 1 G% w20 $end
$var wire 1 H% w21 $end
$var wire 1 I% w22 $end
$var wire 1 J% w23 $end
$var wire 1 K% w24 $end
$var wire 1 L% w25 $end
$var wire 1 M% w26 $end
$var wire 1 N% w27 $end
$var wire 1 O% w28 $end
$var wire 1 P% w29 $end
$var wire 1 Q% w3 $end
$var wire 1 R% w30 $end
$var wire 1 S% w31 $end
$var wire 1 T% w32 $end
$var wire 1 U% w33 $end
$var wire 1 V% w34 $end
$var wire 1 W% w4 $end
$var wire 1 X% w5 $end
$var wire 1 Y% w6 $end
$var wire 1 Z% w7 $end
$var wire 1 [% w8 $end
$var wire 1 \% w9 $end
$var wire 8 ]% sum [7:0] $end
$var wire 8 ^% p [7:0] $end
$var wire 8 _% g [7:0] $end
$var wire 1 i Cin $end
$scope begin gen_loop[0] $end
$var parameter 2 `% i $end
$upscope $end
$scope begin gen_loop[1] $end
$var parameter 2 a% i $end
$upscope $end
$scope begin gen_loop[2] $end
$var parameter 3 b% i $end
$upscope $end
$scope begin gen_loop[3] $end
$var parameter 3 c% i $end
$upscope $end
$scope begin gen_loop[4] $end
$var parameter 4 d% i $end
$upscope $end
$scope begin gen_loop[5] $end
$var parameter 4 e% i $end
$upscope $end
$scope begin gen_loop[6] $end
$var parameter 4 f% i $end
$upscope $end
$scope begin gen_loop[7] $end
$var parameter 4 g% i $end
$upscope $end
$scope module eighth_adder $end
$var wire 1 h% A $end
$var wire 1 i% B $end
$var wire 1 9% Cin $end
$var wire 1 j% S $end
$var wire 1 k% w1 $end
$var wire 1 l% w2 $end
$var wire 1 m% w3 $end
$upscope $end
$scope module fifth_adder $end
$var wire 1 n% A $end
$var wire 1 o% B $end
$var wire 1 6% Cin $end
$var wire 1 p% S $end
$var wire 1 q% w1 $end
$var wire 1 r% w2 $end
$var wire 1 s% w3 $end
$upscope $end
$scope module first_adder $end
$var wire 1 t% A $end
$var wire 1 u% B $end
$var wire 1 v% S $end
$var wire 1 w% w1 $end
$var wire 1 x% w2 $end
$var wire 1 y% w3 $end
$var wire 1 i Cin $end
$upscope $end
$scope module fourth_adder $end
$var wire 1 z% A $end
$var wire 1 {% B $end
$var wire 1 5% Cin $end
$var wire 1 |% S $end
$var wire 1 }% w1 $end
$var wire 1 ~% w2 $end
$var wire 1 !& w3 $end
$upscope $end
$scope module second_adder $end
$var wire 1 "& A $end
$var wire 1 #& B $end
$var wire 1 3% Cin $end
$var wire 1 $& S $end
$var wire 1 %& w1 $end
$var wire 1 && w2 $end
$var wire 1 '& w3 $end
$upscope $end
$scope module seventh_adder $end
$var wire 1 (& A $end
$var wire 1 )& B $end
$var wire 1 8% Cin $end
$var wire 1 *& S $end
$var wire 1 +& w1 $end
$var wire 1 ,& w2 $end
$var wire 1 -& w3 $end
$upscope $end
$scope module sixth_adder $end
$var wire 1 .& A $end
$var wire 1 /& B $end
$var wire 1 7% Cin $end
$var wire 1 0& S $end
$var wire 1 1& w1 $end
$var wire 1 2& w2 $end
$var wire 1 3& w3 $end
$upscope $end
$scope module third_adder $end
$var wire 1 4& A $end
$var wire 1 5& B $end
$var wire 1 4% Cin $end
$var wire 1 6& S $end
$var wire 1 7& w1 $end
$var wire 1 8& w2 $end
$var wire 1 9& w3 $end
$upscope $end
$upscope $end
$scope module second0 $end
$var wire 1 :& Cin $end
$var wire 1 h Cout $end
$var wire 1 r G $end
$var wire 1 n P $end
$var wire 1 ;& w0 $end
$upscope $end
$scope module second1 $end
$var wire 1 h Cin $end
$var wire 1 j Cout $end
$var wire 1 q G $end
$var wire 1 m P $end
$var wire 1 <& w0 $end
$upscope $end
$scope module second2 $end
$var wire 1 j Cin $end
$var wire 1 i Cout $end
$var wire 1 p G $end
$var wire 1 l P $end
$var wire 1 =& w0 $end
$upscope $end
$scope module second3 $end
$var wire 1 i Cin $end
$var wire 1 " Cout $end
$var wire 1 o G $end
$var wire 1 k P $end
$var wire 1 >& w0 $end
$upscope $end
$upscope $end
$upscope $end
$enddefinitions $end
$comment Show the parameter values. $end
$dumpall
b111 g%
b110 f%
b101 e%
b100 d%
b11 c%
b10 b%
b1 a%
b0 `%
b111 ^$
b110 ]$
b101 \$
b100 [$
b11 Z$
b10 Y$
b1 X$
b0 W$
b111 U#
b110 T#
b101 S#
b100 R#
b11 Q#
b10 P#
b1 O#
b0 N#
b111 L"
b110 K"
b101 J"
b100 I"
b11 H"
b10 G"
b1 F"
b0 E"
$end
#0
$dumpvars
0>&
0=&
0<&
0;&
0:&
09&
08&
07&
06&
05&
04&
03&
02&
01&
00&
0/&
0.&
0-&
0,&
0+&
0*&
0)&
0(&
0'&
0&&
0%&
0$&
0#&
0"&
0!&
0~%
0}%
0|%
0{%
0z%
0y%
0x%
0w%
0v%
0u%
0t%
0s%
0r%
0q%
0p%
0o%
0n%
0m%
0l%
0k%
0j%
0i%
0h%
b0 _%
b0 ^%
b0 ]%
0\%
0[%
0Z%
0Y%
0X%
0W%
0V%
0U%
0T%
0S%
0R%
0Q%
0P%
0O%
0N%
0M%
0L%
0K%
0J%
0I%
0H%
0G%
0F%
0E%
0D%
0C%
0B%
0A%
0@%
0?%
0>%
0=%
0<%
0;%
0:%
09%
08%
07%
06%
05%
04%
03%
b0 2%
b0 1%
00%
0/%
0.%
0-%
0,%
0+%
0*%
0)%
0(%
0'%
0&%
0%%
0$%
0#%
0"%
0!%
0~$
0}$
0|$
0{$
0z$
0y$
0x$
0w$
0v$
0u$
0t$
0s$
0r$
0q$
0p$
0o$
0n$
0m$
0l$
0k$
0j$
0i$
0h$
0g$
0f$
0e$
0d$
0c$
0b$
0a$
0`$
0_$
b0 V$
b0 U$
b0 T$
0S$
0R$
0Q$
0P$
0O$
0N$
0M$
0L$
0K$
0J$
0I$
0H$
0G$
0F$
0E$
0D$
0C$
0B$
0A$
0@$
0?$
0>$
0=$
0<$
0;$
0:$
09$
08$
07$
06$
05$
04$
03$
02$
01$
00$
0/$
0.$
0-$
0,$
0+$
0*$
b0 )$
b0 ($
0'$
0&$
0%$
0$$
0#$
0"$
0!$
0~#
0}#
0|#
0{#
0z#
0y#
0x#
0w#
0v#
0u#
0t#
0s#
0r#
0q#
0p#
0o#
0n#
0m#
0l#
0k#
0j#
0i#
0h#
0g#
0f#
0e#
0d#
0c#
0b#
0a#
0`#
0_#
0^#
0]#
0\#
0[#
0Z#
0Y#
0X#
0W#
0V#
b0 M#
b0 L#
b0 K#
0J#
0I#
0H#
0G#
0F#
0E#
0D#
0C#
0B#
0A#
0@#
0?#
0>#
0=#
0<#
0;#
0:#
09#
08#
07#
06#
05#
04#
03#
02#
01#
00#
0/#
0.#
0-#
0,#
0+#
0*#
0)#
0(#
0'#
0&#
0%#
0$#
0##
0"#
0!#
b0 ~"
b0 }"
0|"
0{"
0z"
0y"
0x"
0w"
0v"
0u"
0t"
0s"
0r"
0q"
0p"
0o"
0n"
0m"
0l"
0k"
0j"
0i"
0h"
0g"
0f"
0e"
0d"
0c"
0b"
0a"
0`"
0_"
0^"
0]"
0\"
0["
0Z"
0Y"
0X"
0W"
0V"
0U"
0T"
0S"
0R"
0Q"
0P"
0O"
0N"
0M"
b0 D"
b0 C"
b0 B"
0A"
0@"
0?"
0>"
0="
0<"
0;"
0:"
09"
08"
07"
06"
05"
04"
03"
02"
01"
00"
0/"
0."
0-"
0,"
0+"
0*"
0)"
0("
0'"
0&"
0%"
0$"
0#"
0""
0!"
0~
0}
0|
0{
0z
0y
0x
0w
0v
0u
b0 t
b0 s
0r
0q
0p
0o
0n
0m
0l
0k
0j
0i
0h
b0 g
b0 f
b0 e
0d
0c
0b
0a
0`
0_
0^
0]
0\
0[
0Z
0Y
0X
0W
0V
0U
0T
0S
0R
0Q
0P
0O
0N
0M
0L
0K
0J
0I
0H
0G
0F
0E
0D
0C
0B
0A
0@
0?
0>
0=
0<
0;
0:
09
08
07
06
05
04
03
02
01
00
0/
0.
0-
0,
0+
0*
0)
0(
0'
0&
0%
b0 $
b0 #
0"
b0 !
$end
#100
b1 C"
b1 !
b1 g
b1 B"
1["
1Y"
b1 s
b1 $
b1 e
1%
#150
1g"
1v
b1 D"
b10 !
b10 g
b10 B"
0["
1\"
1Z"
b1 t
b1 #
b1 f
1E
#200
0v
b0 D"
b11 C"
1["
0\"
b11 !
b11 g
b11 B"
1g"
0i"
0Y"
1e"
b10 s
0%
b10 $
b10 e
1&
#300
1y"
1w
b10 D"
b101 !
b101 g
b101 B"
0g"
1h"
1Y"
0Z"
1f"
b11 s
b10 t
b11 $
b11 e
1%
0E
b10 #
b10 f
1F
#400
0w
b0 D"
b110 C"
0["
1g"
0h"
b110 !
b110 g
b110 B"
1y"
0{"
0Y"
0e"
1w"
b100 s
0%
0&
b100 $
b100 e
11
#450
b111 C"
b111 !
b111 g
b111 B"
1["
1Z"
b11 t
b11 #
b11 f
1E
#500
0y"
1{"
1a"
0g"
1j"
1w
1x
1v
1@"
1""
b1 D"
b1000 !
b1000 g
b1000 B"
0["
1\"
1Y"
b101 s
b101 $
b101 e
1%
#600
0{"
1g"
0w
0v
0@"
0""
0i"
b110 C"
b100 D"
0\"
0j"
b1010 !
b1010 g
b1010 B"
0y"
1z"
0|"
0Y"
1e"
0Z"
0f"
1x"
b110 s
b100 t
0%
0E
b110 $
b110 e
1&
0F
b100 #
b100 f
1Q
#700
b111 C"
b1011 !
b1011 g
b1011 B"
1["
1Y"
b111 s
b111 $
b111 e
1%
#750
1y"
1{"
1|"
0g"
1i"
1w
1v
1@"
1""
b101 D"
b1100 !
b1100 g
b1100 B"
0["
1\"
1Z"
b101 t
b101 #
b101 f
1E
#800
0|"
0w
0x
0v
0@"
0""
b0 D"
b1101 C"
1["
0\"
0g"
0i"
1y"
0z"
0{"
b1101 !
b1101 g
b1101 B"
1a"
0c"
0Y"
0e"
0w"
1_"
b1000 s
0%
0&
01
b1000 $
b1000 e
1<
#900
b1111 C"
b1111 !
b1111 g
b1111 B"
1g"
1Y"
0Z"
1f"
b1001 s
b110 t
b1001 $
b1001 e
1%
0E
b110 #
b110 f
1F
#1000
1U"
0a"
1c"
1y
0y"
1|"
1x
1w
1!"
1%"
b1110 C"
b10 D"
0["
b10000 !
b10000 g
b10000 B"
0g"
1h"
0Y"
1e"
b1010 s
0%
b1010 $
b1010 e
1&
#1050
b1111 C"
b10001 !
b10001 g
b10001 B"
1["
1Z"
b111 t
b111 #
b111 f
1E
#1100
1g"
1i"
1j"
1v
1@"
1""
1&"
b11 D"
b10010 !
b10010 g
b10010 B"
0["
1\"
1Y"
b1011 s
b1011 $
b1011 e
1%
#1200
1y"
0c"
0g"
0w
0x
0v
0@"
0""
0&"
0!"
0%"
0i"
0{"
b1100 C"
b1000 D"
0\"
0h"
0j"
0|"
b10100 !
b10100 g
b10100 B"
0a"
1b"
0d"
0Y"
0e"
1w"
0Z"
0f"
0x"
1`"
b1100 s
b1000 t
0%
0E
0&
0F
b1100 $
b1100 e
11
0Q
b1000 #
b1000 f
1\
#1300
b1101 C"
b10101 !
b10101 g
b10101 B"
1["
1Y"
b1101 s
b1101 $
b1101 e
1%
#1350
1g"
1v
b1001 D"
b10110 !
b10110 g
b10110 B"
0["
1\"
1Z"
b1001 t
b1001 #
b1001 f
1E
#1400
0v
b1000 D"
b1111 C"
1["
0\"
b10111 !
b10111 g
b10111 B"
1g"
0i"
0Y"
1e"
b1110 s
0%
b1110 $
b1110 e
1&
#1500
1a"
1c"
1d"
0y"
1{"
1x
1w
1!"
1%"
b1010 D"
b11001 !
b11001 g
b11001 B"
0g"
1h"
1Y"
0Z"
1f"
b1111 s
b1010 t
b1111 $
b1111 e
1%
0E
b1010 #
b1010 f
1F
#1600
0d"
0y
0x
0w
0!"
0%"
b0 D"
b11010 C"
0["
1g"
0h"
0y"
0{"
1a"
0b"
0c"
b11010 !
b11010 g
b11010 B"
1U"
0W"
0Y"
0e"
0w"
0_"
1S"
b10000 s
0%
0&
01
0<
b10000 $
b10000 e
1?
#1650
b11011 C"
b11011 !
b11011 g
b11011 B"
1["
1Z"
b1011 t
b1011 #
b1011 f
1E
#1700
1y"
0g"
1j"
1w
1v
1@"
b1 D"
b11100 !
b11100 g
b11100 B"
0["
1\"
1Y"
b10001 s
b10001 $
b10001 e
1%
#1800
1g"
0w
0v
0@"
0i"
b0 D"
b11110 C"
0\"
0j"
b11110 !
b11110 g
b11110 B"
1y"
0|"
0Y"
1e"
0Z"
0f"
1x"
b10010 s
b1100 t
0%
0E
b10010 $
b10010 e
1&
0F
b1100 #
b1100 f
1Q
#1900
b11111 C"
b11111 !
b11111 g
b11111 B"
1["
1Y"
b10011 s
b10011 $
b10011 e
1%
#1950
1s"
0U"
1W"
1z
0y"
1|"
0a"
1d"
1y
0g"
1i"
1w
1x
1,"
1v
1@"
1""
1&"
b1 D"
b100000 !
b100000 g
b100000 B"
0["
1\"
1Z"
b1101 t
b1101 #
b1101 f
1E
#2000
0|"
0w
0,"
0v
0@"
0""
0&"
1$"
1)"
b11101 C"
b100 D"
1["
0\"
0g"
0i"
b100001 !
b100001 g
b100001 B"
0y"
1z"
0{"
0Y"
0e"
1w"
b10100 s
0%
0&
b10100 $
b10100 e
11
#2100
b11111 C"
b100011 !
b100011 g
b100011 B"
1g"
1Y"
0Z"
1f"
b10101 s
b1110 t
b10101 $
b10101 e
1%
0E
b1110 #
b1110 f
1F
#2200
1y"
1{"
1|"
1w
1!"
1%"
1*"
b11110 C"
b110 D"
0["
b100100 !
b100100 g
b100100 B"
0g"
1h"
0Y"
1e"
b10110 s
0%
b10110 $
b10110 e
1&
#2250
b11111 C"
b100101 !
b100101 g
b100101 B"
1["
1Z"
b1111 t
b1111 #
b1111 f
1E
#2300
1g"
1i"
1j"
1,"
1v
1@"
1""
1&"
b111 D"
b100110 !
b100110 g
b100110 B"
0["
1\"
1Y"
b10111 s
b10111 $
b10111 e
1%
